(module DIP-6_W7.62mm_SMD (layer F.Cu) (tedit 594662B4)
  (descr "6-lead dip package, row spacing 7.62 mm (300 mils), SMD")
  (tags "DIL DIP PDIP 2.54mm 7.62mm 300mil SMD")
  (attr smd)
  (fp_text reference REF** (at 0 -4.93) (layer F.SilkS)
    (effects (font (size 1 1) (thickness 0.15)))
  )
  (fp_text value DIP-6_W7.62mm_SMD (at 0 4.93) (layer F.Fab)
    (effects (font (size 1 1) (thickness 0.15)))
  )
  (fp_text user %R (at 0 0) (layer F.Fab)
    (effects (font (size 1 1) (thickness 0.15)))
  )
  (fp_line (start -3.25 -3.56) (end 3.25 -3.56) (layer F.Fab) (width 0.1))
  (fp_line (start 3.25 -3.56) (end 3.25 3.56) (layer F.Fab) (width 0.1))
  (fp_line (start 3.25 3.56) (end -3.25 3.56) (layer F.Fab) (width 0.1))
  (fp_line (start -3.25 3.56) (end -3.25 -3.56) (layer F.Fab) (width 0.1))
  (fp_line (start -3.4 -3.71) (end -3.4 3.71) (layer F.SilkS) (width 0.12))
  (fp_line (start -3.4 3.71) (end 3.4 3.71) (layer F.SilkS) (width 0.12))
  (fp_line (start 3.4 3.71) (end 3.4 -3.71) (layer F.SilkS) (width 0.12))
  (fp_line (start -5.645 -3.96) (end -5.645 3.96) (layer F.CrtYd) (width 0.05))
  (fp_line (start -5.645 3.96) (end 5.645 3.96) (layer F.CrtYd) (width 0.05))
  (fp_line (start 5.645 -3.96) (end -5.645 -3.96) (layer F.CrtYd) (width 0.05))
  (fp_line (start -3.4 -3.71) (end 3.4 -3.71) (layer F.SilkS) (width 0.12))
  (fp_line (start 5.645 -3.96) (end 5.645 3.96) (layer F.CrtYd) (width 0.05))
  (pad 1 smd rect (at -4.635 -2.54) (size 1.52 1.78) (layers F.Cu F.Paste F.Mask))
  (pad 4 smd rect (at 4.635 2.54) (size 1.52 1.78) (layers F.Cu F.Paste F.Mask))
  (pad 2 smd rect (at -4.635 0) (size 1.52 1.78) (layers F.Cu F.Paste F.Mask))
  (pad 5 smd rect (at 4.635 0) (size 1.52 1.78) (layers F.Cu F.Paste F.Mask))
  (pad 3 smd rect (at -4.635 2.54) (size 1.52 1.78) (layers F.Cu F.Paste F.Mask))
  (pad 6 smd rect (at 4.635 -2.54) (size 1.52 1.78) (layers F.Cu F.Paste F.Mask))
  (model ${KISYS3DMOD}/Housings_DIP.3dshapes/DIP-6_W7.62mm_SMD.wrl
    (at (xyz 0 0 0))
    (scale (xyz 1 1 1))
    (rotate (xyz 0 0 0))
  )
)
