(module SJ-2523-SMT (layer F.Cu) (tedit 58DC99B6)
  (fp_text reference REF** (at 0 -6.35) (layer F.SilkS)
    (effects (font (size 1 1) (thickness 0.15)))
  )
  (fp_text value SJ-2523-SMT (at 0 6.35) (layer F.Fab)
    (effects (font (size 1 1) (thickness 0.15)))
  )
  (fp_line (start -6.58 1.75) (end -6.58 -1.75) (layer F.Fab) (width 0.1))
  (fp_line (start -6.33 2) (end -5.08 2) (layer F.Fab) (width 0.1))
  (fp_line (start -5.08 -2) (end -6.33 -2) (layer F.Fab) (width 0.1))
  (fp_line (start -6.58 1.75) (end -6.33 2) (layer F.Fab) (width 0.1))
  (fp_line (start -6.33 -2) (end -6.58 -1.75) (layer F.Fab) (width 0.1))
  (fp_line (start 1.92 2.5) (end -5.08 2.5) (layer F.Fab) (width 0.1))
  (fp_line (start 1.92 2.8) (end 1.92 2.5) (layer F.Fab) (width 0.1))
  (fp_line (start 2.92 2.8) (end 1.92 2.8) (layer F.Fab) (width 0.1))
  (fp_line (start 2.92 2.5) (end 2.92 2.8) (layer F.Fab) (width 0.1))
  (fp_line (start 6.92 2.5) (end 2.92 2.5) (layer F.Fab) (width 0.1))
  (fp_line (start 2.92 -2.5) (end 6.92 -2.5) (layer F.Fab) (width 0.1))
  (fp_line (start 2.92 -2.8) (end 2.92 -2.5) (layer F.Fab) (width 0.1))
  (fp_line (start 1.92 -2.5) (end 1.92 -2.8) (layer F.Fab) (width 0.1))
  (fp_line (start 1.92 -2.8) (end 2.92 -2.8) (layer F.Fab) (width 0.1))
  (fp_line (start -5.08 2) (end -5.08 2.5) (layer F.Fab) (width 0.1))
  (fp_line (start -5.08 -2.5) (end -5.08 -2) (layer F.Fab) (width 0.1))
  (fp_line (start 6.92 -2.5) (end 6.92 2.5) (layer F.Fab) (width 0.1))
  (fp_line (start -5.08 -2.5) (end 1.92 -2.5) (layer F.Fab) (width 0.1))
  (fp_line (start -5.08 -2.65) (end -2.13 -2.65) (layer F.SilkS) (width 0.12))
  (fp_line (start 1.77 -2.65) (end 1.77 -2.95) (layer F.SilkS) (width 0.12))
  (fp_line (start 1.77 -2.95) (end 3.07 -2.95) (layer F.SilkS) (width 0.12))
  (fp_line (start 3.07 -2.95) (end 3.07 -2.65) (layer F.SilkS) (width 0.12))
  (fp_line (start 3.07 -2.65) (end 7.07 -2.65) (layer F.SilkS) (width 0.12))
  (fp_line (start 0.77 -2.65) (end 1.77 -2.65) (layer F.SilkS) (width 0.12))
  (fp_line (start 7.07 -2.65) (end 7.07 1.85) (layer F.SilkS) (width 0.12))
  (fp_line (start 3.07 2.65) (end 4.87 2.65) (layer F.SilkS) (width 0.12))
  (fp_line (start 3.07 2.95) (end 3.07 2.65) (layer F.SilkS) (width 0.12))
  (fp_line (start 1.77 2.95) (end 3.07 2.95) (layer F.SilkS) (width 0.12))
  (fp_line (start 1.77 2.65) (end 1.77 2.95) (layer F.SilkS) (width 0.12))
  (fp_line (start -1.955 2.65) (end 1.77 2.65) (layer F.SilkS) (width 0.12))
  (fp_line (start -5.08 2.65) (end -4.83 2.65) (layer F.SilkS) (width 0.12))
  (fp_line (start 7.77 -5) (end 7.77 5) (layer F.CrtYd) (width 0.05))
  (fp_line (start -6.83 5) (end -6.83 -5) (layer F.CrtYd) (width 0.05))
  (fp_line (start -6.83 5) (end 7.77 5) (layer F.CrtYd) (width 0.05))
  (fp_line (start -6.83 -5) (end 7.77 -5) (layer F.CrtYd) (width 0.05))
  (pad "" np_thru_hole circle (at -2.08 0) (size 1.2 1.2) (drill 1) (layers *.Cu *.Mask))
  (pad "" np_thru_hole circle (at 3.92 0) (size 1.2 1.2) (drill 1) (layers *.Cu *.Mask))
  (pad 1 smd rect (at -3.38 3.275) (size 2.4 2.95) (layers F.Cu F.Paste F.Mask))
  (pad 3 smd rect (at -0.68 -3.275) (size 2.4 2.95) (layers F.Cu F.Paste F.Mask))
  (pad 2 smd rect (at 6.32 3.425) (size 2.4 2.65) (layers F.Cu F.Paste F.Mask))
)
