(module F-6888 (layer F.Cu) (tedit 5A5FC535)
  (fp_text reference REF** (at -5.5 14.5) (layer F.SilkS)
    (effects (font (size 1 1) (thickness 0.15)))
  )
  (fp_text value F-6888 (at 0 -8) (layer F.Fab)
    (effects (font (size 1 1) (thickness 0.15)))
  )
  (fp_arc (start -0.5 8.5) (end -0.5 10.5) (angle 180) (layer F.Fab) (width 0.1))
  (fp_arc (start 2.5 8.5) (end 2.5 6.5) (angle 180) (layer F.Fab) (width 0.1))
  (fp_line (start -0.5 6.5) (end 2.5 6.5) (layer F.Fab) (width 0.1))
  (fp_line (start 2.5 10.5) (end -0.5 10.5) (layer F.Fab) (width 0.1))
  (fp_line (start -3 -3) (end 3 -3) (layer F.Fab) (width 0.1))
  (fp_line (start -3 3) (end -3 -3) (layer F.Fab) (width 0.1))
  (fp_line (start 3 3) (end -3 3) (layer F.Fab) (width 0.1))
  (fp_line (start 3 -3) (end 3 3) (layer F.Fab) (width 0.1))
  (fp_line (start 4.25 -11.9) (end 4.25 -9.7) (layer F.Fab) (width 0.5))
  (fp_circle (center -5.5 -5.6) (end -5.3 -5.6) (layer F.SilkS) (width 0.4))
  (fp_line (start -6.9 -12.65) (end 6.9 -12.65) (layer F.SilkS) (width 0.12))
  (fp_line (start -6.9 12.65) (end -4.4 12.65) (layer F.SilkS) (width 0.12))
  (fp_line (start -6.9 -12.65) (end -6.9 -6.15) (layer F.SilkS) (width 0.12))
  (fp_line (start -6.9 12.65) (end -6.9 11.45) (layer F.SilkS) (width 0.12))
  (fp_line (start 6.9 -12.65) (end 6.9 -6.15) (layer F.SilkS) (width 0.12))
  (fp_line (start 6.9 12.65) (end 6.9 11.45) (layer F.SilkS) (width 0.12))
  (fp_line (start 6.9 12.65) (end 4.4 12.65) (layer F.SilkS) (width 0.12))
  (fp_line (start -6.75 -12.5) (end 6.75 -12.5) (layer F.Fab) (width 0.1))
  (fp_line (start -6.75 -12.5) (end -6.75 12.5) (layer F.Fab) (width 0.12))
  (fp_line (start 6.75 -12.5) (end 6.75 12.5) (layer F.Fab) (width 0.12))
  (fp_line (start -6.75 12.5) (end 6.75 12.5) (layer F.Fab) (width 0.1))
  (fp_line (start -7.6 -12.9) (end 7.6 -12.9) (layer F.CrtYd) (width 0.05))
  (fp_line (start -7.6 13.35) (end 7.6 13.35) (layer F.CrtYd) (width 0.05))
  (fp_line (start -7.6 -12.9) (end -7.6 13.35) (layer F.CrtYd) (width 0.05))
  (fp_line (start 7.6 -12.9) (end 7.6 13.35) (layer F.CrtYd) (width 0.05))
  (fp_line (start -7.6 -7.1) (end 7.6 -7.1) (layer F.Fab) (width 0.1))
  (fp_line (start 4.25 -11.9) (end 5.25 -11.9) (layer F.Fab) (width 0.5))
  (fp_line (start 5.25 -11.9) (end 5.25 -7.1) (layer F.Fab) (width 0.5))
  (fp_line (start 3.25 -9.7) (end 4.25 -9.7) (layer F.Fab) (width 0.5))
  (fp_line (start 3.25 -11.9) (end 3.25 -9.7) (layer F.Fab) (width 0.5))
  (fp_line (start 2.25 -11.9) (end 3.25 -11.9) (layer F.Fab) (width 0.5))
  (fp_line (start 2.25 -11.9) (end 2.25 -9.7) (layer F.Fab) (width 0.5))
  (fp_line (start 1.25 -9.7) (end 2.25 -9.7) (layer F.Fab) (width 0.5))
  (fp_line (start -0.75 -11.9) (end -0.75 -9.7) (layer F.Fab) (width 0.5))
  (fp_line (start 0.25 -9.7) (end -0.75 -9.7) (layer F.Fab) (width 0.5))
  (fp_line (start 0.25 -11.9) (end 0.25 -9.7) (layer F.Fab) (width 0.5))
  (fp_line (start -1.75 -11.9) (end -0.75 -11.9) (layer F.Fab) (width 0.5))
  (fp_line (start -2.75 -9.7) (end -1.75 -9.7) (layer F.Fab) (width 0.5))
  (fp_line (start 0.25 -11.9) (end 1.25 -11.9) (layer F.Fab) (width 0.5))
  (fp_line (start -4.75 -11.9) (end -2.75 -11.9) (layer F.Fab) (width 0.5))
  (fp_line (start 1.25 -11.9) (end 1.25 -9.7) (layer F.Fab) (width 0.5))
  (fp_line (start -1.75 -11.9) (end -1.75 -9.7) (layer F.Fab) (width 0.5))
  (fp_line (start -2.75 -11.9) (end -2.75 -9.7) (layer F.Fab) (width 0.5))
  (pad 1 smd rect (at -6.75 -5.6) (size 1.2 0.8) (layers F.Cu F.Paste F.Mask))
  (pad 2 smd rect (at -6.75 -4.5) (size 1.2 0.8) (layers F.Cu F.Paste F.Mask))
  (pad 3 smd rect (at -6.75 -3.4) (size 1.2 0.8) (layers F.Cu F.Paste F.Mask))
  (pad 4 smd rect (at -6.75 -2.3) (size 1.2 0.8) (layers F.Cu F.Paste F.Mask))
  (pad 5 smd rect (at -6.75 -1.2) (size 1.2 0.8) (layers F.Cu F.Paste F.Mask))
  (pad 6 smd rect (at -6.75 -0.1) (size 1.2 0.8) (layers F.Cu F.Paste F.Mask))
  (pad 7 smd rect (at -6.75 1) (size 1.2 0.8) (layers F.Cu F.Paste F.Mask))
  (pad 8 smd rect (at -6.75 2.1) (size 1.2 0.8) (layers F.Cu F.Paste F.Mask))
  (pad 9 smd rect (at -6.75 3.2) (size 1.2 0.8) (layers F.Cu F.Paste F.Mask))
  (pad 10 smd rect (at -6.75 4.3) (size 1.2 0.8) (layers F.Cu F.Paste F.Mask))
  (pad 11 smd rect (at -6.75 5.4) (size 1.2 0.8) (layers F.Cu F.Paste F.Mask))
  (pad 12 smd rect (at -6.75 6.5) (size 1.2 0.8) (layers F.Cu F.Paste F.Mask))
  (pad 13 smd rect (at -6.75 7.6) (size 1.2 0.8) (layers F.Cu F.Paste F.Mask))
  (pad 14 smd rect (at -6.75 8.7) (size 1.2 0.8) (layers F.Cu F.Paste F.Mask))
  (pad 15 smd rect (at -6.75 9.8) (size 1.2 0.8) (layers F.Cu F.Paste F.Mask))
  (pad 16 smd rect (at -6.75 10.9) (size 1.2 0.8) (layers F.Cu F.Paste F.Mask))
  (pad 37 smd rect (at 6.75 -2.3) (size 1.2 0.8) (layers F.Cu F.Paste F.Mask))
  (pad 40 smd rect (at 6.75 -5.6) (size 1.2 0.8) (layers F.Cu F.Paste F.Mask))
  (pad 39 smd rect (at 6.75 -4.5) (size 1.2 0.8) (layers F.Cu F.Paste F.Mask))
  (pad 38 smd rect (at 6.75 -3.4) (size 1.2 0.8) (layers F.Cu F.Paste F.Mask))
  (pad 36 smd rect (at 6.75 -1.2) (size 1.2 0.8) (layers F.Cu F.Paste F.Mask))
  (pad 32 smd rect (at 6.75 3.2) (size 1.2 0.8) (layers F.Cu F.Paste F.Mask))
  (pad 35 smd rect (at 6.75 -0.1) (size 1.2 0.8) (layers F.Cu F.Paste F.Mask))
  (pad 34 smd rect (at 6.75 1) (size 1.2 0.8) (layers F.Cu F.Paste F.Mask))
  (pad 33 smd rect (at 6.75 2.1) (size 1.2 0.8) (layers F.Cu F.Paste F.Mask))
  (pad 31 smd rect (at 6.75 4.3) (size 1.2 0.8) (layers F.Cu F.Paste F.Mask))
  (pad 30 smd rect (at 6.75 5.4) (size 1.2 0.8) (layers F.Cu F.Paste F.Mask))
  (pad 29 smd rect (at 6.75 6.5) (size 1.2 0.8) (layers F.Cu F.Paste F.Mask))
  (pad 28 smd rect (at 6.75 7.6) (size 1.2 0.8) (layers F.Cu F.Paste F.Mask))
  (pad 27 smd rect (at 6.75 8.7) (size 1.2 0.8) (layers F.Cu F.Paste F.Mask))
  (pad 26 smd rect (at 6.75 9.8) (size 1.2 0.8) (layers F.Cu F.Paste F.Mask))
  (pad 25 smd rect (at 6.75 10.9) (size 1.2 0.8) (layers F.Cu F.Paste F.Mask))
  (pad 17 smd rect (at -3.85 12.5) (size 0.8 1.2) (layers F.Cu F.Paste F.Mask))
  (pad 18 smd rect (at -2.75 12.5) (size 0.8 1.2) (layers F.Cu F.Paste F.Mask))
  (pad 19 smd rect (at -1.65 12.5) (size 0.8 1.2) (layers F.Cu F.Paste F.Mask))
  (pad 20 smd rect (at -0.55 12.5) (size 0.8 1.2) (layers F.Cu F.Paste F.Mask))
  (pad 21 smd rect (at 0.55 12.5) (size 0.8 1.2) (layers F.Cu F.Paste F.Mask))
  (pad 22 smd rect (at 1.65 12.5) (size 0.8 1.2) (layers F.Cu F.Paste F.Mask))
  (pad 23 smd rect (at 2.75 12.5) (size 0.8 1.2) (layers F.Cu F.Paste F.Mask))
  (pad 24 smd rect (at 3.85 12.5) (size 0.8 1.2) (layers F.Cu F.Paste F.Mask))
)
